%YAML 1.1
%TAG !u! tag:unity3d.com,2011:
--- !u!114 &11400000
MonoBehaviour:
  m_ObjectHideFlags: 0
  m_CorrespondingSourceObject: {fileID: 0}
  m_PrefabInstance: {fileID: 0}
  m_PrefabAsset: {fileID: 0}
  m_GameObject: {fileID: 0}
  m_Enabled: 1
  m_EditorHideFlags: 0
  m_Script: {fileID: 11500000, guid: 7ef67d51111812d43bd2b15929eb02ea, type: 3}
  m_Name: Battle3
  m_EditorClassIdentifier: 
  TimelineData:
    AnimationTrackDatas:
    - BaseTrackData:
        TrackName: WhiteAnimationTrack
        TrackBindingName: white
      ClipsOfTrack:
      - AttachTrackName: WhiteAnimationTrack
        ClipDisplayName: eh_idel
        StartTime: 0
        EndTime: 0.8333333333333334
        Type: 0
        AnimationClipName: eh_idel
      - AttachTrackName: WhiteAnimationTrack
        ClipDisplayName: eh_idel
        StartTime: 0.8333333333333334
        EndTime: 1.6666666666666667
        Type: 0
        AnimationClipName: eh_idel
      - AttachTrackName: WhiteAnimationTrack
        ClipDisplayName: DamageF2
        StartTime: 1.5666666666666667
        EndTime: 2.0666666666666664
        Type: 0
        AnimationClipName: DamageF2
      - AttachTrackName: WhiteAnimationTrack
        ClipDisplayName: Take 001
        StartTime: 2.0666666666666664
        EndTime: 2.6666666666666665
        Type: 0
        AnimationClipName: Take 001
    - BaseTrackData:
        TrackName: RedAnimationTrack
        TrackBindingName: red
      ClipsOfTrack:
      - AttachTrackName: RedAnimationTrack
        ClipDisplayName: eh_idel
        StartTime: 0
        EndTime: 0.8333333333333334
        Type: 0
        AnimationClipName: eh_idel
      - AttachTrackName: RedAnimationTrack
        ClipDisplayName: Take 001
        StartTime: 0.8333333333333334
        EndTime: 1.3166666666666667
        Type: 0
        AnimationClipName: Take 001
      - AttachTrackName: RedAnimationTrack
        ClipDisplayName: RISING_P2
        StartTime: 1.3166666666666667
        EndTime: 2.6333333333333333
        Type: 0
        AnimationClipName: RISING_P2
    - BaseTrackData:
        TrackName: Animation Track
        TrackBindingName: white
      ClipsOfTrack:
      - AttachTrackName: Animation Track
        ClipDisplayName: Recorded (3)
        StartTime: 1.5833333333333333
        EndTime: 2.15
        Type: 0
        AnimationClipName: Recorded (3)
    - BaseTrackData:
        TrackName: Animation Track (1)
        TrackBindingName: red
      ClipsOfTrack:
      - AttachTrackName: Animation Track (1)
        ClipDisplayName: Recorded (1)
        StartTime: 0.8333333333333334
        EndTime: 1.3166666666666667
        Type: 0
        AnimationClipName: Recorded (1)
    AudioTrackDatas:
    - BaseTrackData:
        TrackName: AudioTrack
        TrackBindingName: Cameras
      ClipsOfTrack:
      - AttachTrackName: AudioTrack
        ClipDisplayName: bg
        StartTime: 0
        EndTime: 1.5666666666666667
        Type: 3
        AudioClipName: 14215
        IsLoop: 0
        Volume: 0
      - AttachTrackName: AudioTrack
        ClipDisplayName: jida
        StartTime: 1.3166666666666667
        EndTime: 1.8833333333333333
        Type: 3
        AudioClipName: 14616
        IsLoop: 0
        Volume: 0
    CinemachineTrackDatas:
    - BaseTrackData:
        TrackName: CinemachineTrack
        TrackBindingName: Main Camera
      ClipsOfTrack:
      - AttachTrackName: CinemachineTrack
        ClipDisplayName: CM vcam1
        StartTime: 0
        EndTime: 1.3166666666666667
        Type: 1
        VirtualCameraName: CM vcam1
        FollowName: TargetGroup1
        LookAtName: TargetGroup1
        Priority: 10
      - AttachTrackName: CinemachineTrack
        ClipDisplayName: CM vcam1
        StartTime: 0.6
        EndTime: 1.6
        Type: 1
        VirtualCameraName: CM vcam1
        FollowName: TargetGroup1
        LookAtName: TargetGroup1
        Priority: 10
      - AttachTrackName: CinemachineTrack
        ClipDisplayName: CM vcam3
        StartTime: 1.4333333333333333
        EndTime: 2.283333333333333
        Type: 1
        VirtualCameraName: CM vcam3
        FollowName: Character1_RightHand
        LookAtName: Character1_RightHand
        Priority: 10
      - AttachTrackName: CinemachineTrack
        ClipDisplayName: CM vcam1
        StartTime: 1.8833333333333333
        EndTime: 2.6333333333333333
        Type: 1
        VirtualCameraName: CM vcam1
        FollowName: TargetGroup1
        LookAtName: TargetGroup1
        Priority: 10
    EffectTrackDatas:
    - BaseTrackData:
        TrackName: Effect Track
        TrackBindingName: 
      ClipsOfTrack:
      - AttachTrackName: Effect Track
        ClipDisplayName: EffectPlayableAsset
        StartTime: 1.5833333333333333
        EndTime: 2.05
        Type: 2
        ParticleName: eff_hit
        ParentName: Character1_RightHand
        px: -0.08
        py: -0.02
        pz: -0.57
        rx: 0
        ry: 0
        rz: 0
    TimeTrackDatas:
    - BaseTrackData:
        TrackName: Time Track
        TrackBindingName: 
      ClipsOfTrack:
      - AttachTrackName: Time Track
        ClipDisplayName: TimaPlayableAsset
        StartTime: 1.5833333333333333
        EndTime: 1.5999999999999999
        Type: 4
        Scale: 0.01
